{"status":true,"message":"Accounts retrieved successfully.","current_page":1,"per_page":10,"total":17,"last_page":2,"from":1,"to":10,"data":[{"_id":"10210580665695137","platform":"facebook","account_name":"Ken Davis","profile_picture":"https:\/\/storage.googleapis.com\/contentstudio-media-library-nearline\/social_profiles_image\/b1dC4Z9TiQvFv2c.jpg","account_type":"Profile","added_by":"Kenneth Davis","validity":"valid"},{"_id":"did:plc:vozzgrxt56moehyifc4swt7l","platform":"bluesky","account_name":"Smart Hustler Marketing","profile_picture":"https:\/\/cdn.bsky.app\/img\/avatar\/plain\/did:plc:vozzgrxt56moehyifc4swt7l\/bafkreibmokdt6votwsi5bd7duuyahm7xcmdoovtlitsn7ql2ibftyphhqm@jpeg","account_type":"profile","added_by":"Kenneth Davis","validity":"valid"},{"_id":"UCzBJTFf172jZwzHYl9gQTtQ","platform":"youtube","account_name":"MoabyteMusic Chill Vibes","profile_picture":"https:\/\/storage.googleapis.com\/contentstudio-media-library-nearline\/social_profiles_image\/ctvqmVO3CsTAZB5.jpg","account_type":"channel","added_by":"Kenneth Davis","validity":"valid"},{"_id":"56167293-4ffe-5fa6-8ecb-844c0b310f0f","platform":"tiktok","account_name":"moabytemusic_chill","profile_picture":"https:\/\/storage.googleapis.com\/contentstudio-media-library-nearline\/social_profiles_image\/Iq7TESA3BCKhzG4.jpg","account_type":"profile","added_by":"Kenneth Davis","validity":"valid"},{"_id":"b4edd880-ec26-4997-ad75-632af4f8fa3b","platform":"facebook","account_name":"Soundcloud And Youtube Music Promotions","profile_picture":"https:\/\/storage.googleapis.com\/contentstudio-media-library-nearline\/social_profiles_image\/facebook\/group-default-cover.png","account_type":"Group","added_by":"Kenneth Davis","validity":"valid"},{"_id":"920478796641288197","platform":"twitter","account_name":"MusicbyZanekYeb","profile_picture":"https:\/\/storage.googleapis.com\/contentstudio-media-library-nearline\/social_profiles_image\/6Om84Y9tF1vJJcr.jpg","account_type":"","added_by":"Kenneth Davis","validity":"valid"},{"_id":"1872988116295543","platform":"facebook","account_name":"Moabytemusic","profile_picture":"https:\/\/storage.googleapis.com\/contentstudio-media-library-nearline\/social_profiles_image\/SL1JvZqbVvPn3n8.png","account_type":"Page","added_by":"Kenneth Davis","validity":"valid"},{"_id":"2915a247-67d1-50be-917b-d3e21ad5642c","platform":"tiktok","account_name":"hiphopradio","profile_picture":"https:\/\/p19-pu-sign-useast8.tiktokcdn-us.com\/tos-useast8-avt-0068-tx2\/15b9d99dde605c8ff1cb99777787814d~tplv-tiktokx-cropcenter:168:168.jpeg?dr=9638&nonce=27611&refresh_token=a941d86ecc83889ee2041aa6e16b11d7&x-expires=1740610800&x-signature=Mxi5euB4VOkX8eAjjWa4n0z%2BdLM%3D&idc=useast5&ps=13740610&shcp=8aecc5ac&shp=a5d48078&t=4d5b0474","account_type":"profile","added_by":"","validity":"invalid"},{"_id":"UCFtZCt8Axul94_GQlIqJyVA","platform":"youtube","account_name":"Moabyte Music","profile_picture":"https:\/\/yt3.ggpht.com\/ytc\/AIdro_meZQDvkVwIytlz05tUr4sKYRoxduo30MYm6fDWZDFwo5Dx5x44u4bpmQY2f_R4uW4yGQ=s800-c-k-c0x00ffffff-no-rj","account_type":"channel","added_by":"Kenneth Davis","validity":"valid"},{"_id":"17841404936174538","platform":"instagram","account_name":"moabytebeatz","profile_picture":"https:\/\/storage.googleapis.com\/contentstudio-media-library-nearline\/social_profiles_image\/y5UjfYMiO0Fy4Go.jpg","account_type":"","added_by":"Kenneth Davis","validity":"valid"}]}