{"status":true,"message":"Accounts retrieved successfully.","current_page":2,"per_page":10,"total":17,"last_page":2,"from":11,"to":17,"data":[{"_id":"17841402140039542","platform":"instagram","account_name":"Time Rock Media","profile_picture":"https:\/\/scontent-fra3-1.xx.fbcdn.net\/v\/t51.2885-15\/346910132_1725477721201386_6084680321533529242_n.jpg?_nc_cat=105&ccb=1-7&_nc_sid=7d201b&_nc_ohc=jc71gx6Oa0AQ7kNvwHZT0Um&_nc_oc=AdmKQmsxZQaWqAzabG2MdTLKzmHtZBgINgiwu_9UqBnNwtE2i-1EcYtqXQukuseBeCc&_nc_zt=23&_nc_ht=scontent-fra3-1.xx&edm=AP4hL3IEAAAA&oh=00_AfqIXUsHpZAez4d1pkVX7clRUYO9ALi-xFJBL7OnVL8E5A&oe=695ED410","account_type":"","added_by":"Kenneth Davis","validity":"valid"},{"_id":"UCzpt_Vyb1UppAmymy-uedhQ","platform":"youtube","account_name":"Collaborationsky","profile_picture":"https:\/\/storage.googleapis.com\/contentstudio-media-library-nearline\/social_profiles_image\/fSMyAk7T69CsEMP.jpg","account_type":"channel","added_by":"Kenneth Davis","validity":"valid"},{"_id":"k2OEYtLxxr","platform":"linkedin","account_name":"Collaboration Sky","profile_picture":"https:\/\/storage.googleapis.com\/contentstudio-media-library-nearline\/social_profiles_image\/MPJyRlO6hflbrbW.jpg","account_type":"Profile","added_by":"Kenneth Davis","validity":"expired"},{"_id":"UCrrBvTlCtDs18D8P5m3nWjg","platform":"youtube","account_name":"The Market Ranger","profile_picture":"https:\/\/storage.googleapis.com\/contentstudio-media-library-nearline\/social_profiles_image\/outojROxYEXCWIv.jpg","account_type":"channel","added_by":"Kenneth Davis","validity":"invalid"},{"_id":"212f0e64-22f8-4884-9824-23d78d02ec3e","platform":"tiktok","account_name":"Kenaz Bey","profile_picture":"https:\/\/p16-common-sign-va.tiktokcdn-us.com\/tos-maliva-avt-0068\/7333441659307065349~tplv-tiktokx-cropcenter:168:168.jpeg?dr=9638&refresh_token=60f4f7f8&x-expires=1742245200&x-signature=kD9hwv3bOaPmK0xGh6EoGoWvGoY%3D&t=4d5b0474&ps=13740610&shp=a5d48078&shcp=8aecc5ac&idc=useast5","account_type":"profile","added_by":"","validity":"valid"},{"_id":"profile_marketranger","platform":"tumblr","account_name":"marketranger","profile_picture":"https:\/\/storage.googleapis.com\/lumotive-web-storage\/third_party\/59da33d865d44007893930c2\/aLJFkszB7dgqFcPketNy_image_file.jpg","account_type":"profile","added_by":"Kenneth Davis","validity":null},{"_id":"IlFvYCSKCa","platform":"linkedin","account_name":"Smart Hustler Marketing","profile_picture":"https:\/\/storage.googleapis.com\/contentstudio-media-library-nearline\/social_profiles_image\/GAd2zzE2moRwV7M.jpg","account_type":"Profile","added_by":"Kenneth Davis","validity":"valid"}]}